EESchema Schematic File Version 4
EELAYER 26 0
EELAYER END
$Descr A4 11693 8268
encoding utf-8
Sheet 1 1
Title ""
Date ""
Rev ""
Comp ""
Comment1 ""
Comment2 ""
Comment3 ""
Comment4 ""
$EndDescr
$Comp
L snektek_lib:TTL_RS485 U2
U 1 1 5CA2E306
P 6600 3450
F 0 "U2" H 6525 4115 50  0000 C CNN
F 1 "TTL_RS485" H 6525 4024 50  0000 C CNN
F 2 "snektek_lib:TTL_RS485" H 5900 3350 50  0001 C CNN
F 3 "" H 5900 3350 50  0001 C CNN
	1    6600 3450
	-1   0    0    1   
$EndComp
$Comp
L ESP8266:NodeMCU_1.0_(ESP-12E) U1
U 1 1 5CA2E391
P 3800 3400
F 0 "U1" H 3800 4593 60  0000 C CNN
F 1 "NodeMCU_1.0_(ESP-12E)" H 3800 4487 60  0000 C CNN
F 2 "ESP8266:NodeMCU-LoLinV3" H 3800 4381 60  0000 C CNN
F 3 "" H 3200 2550 60  0000 C CNN
	1    3800 3400
	1    0    0    -1  
$EndComp
$Comp
L Connector:RJ45 J1
U 1 1 5CA2E628
P 3500 5100
F 0 "J1" H 3170 5104 50  0000 R CNN
F 1 "RJ45" H 3170 5195 50  0000 R CNN
F 2 "glue_dispenser:rj45_52-8P8C" V 3500 5125 50  0001 C CNN
F 3 "~" V 3500 5125 50  0001 C CNN
	1    3500 5100
	-1   0    0    1   
$EndComp
Wire Wire Line
	4600 3300 4950 3300
$Comp
L power:GNDD #PWR0103
U 1 1 5CA540CE
P 4950 4350
F 0 "#PWR0103" H 4950 4100 50  0001 C CNN
F 1 "GNDD" H 4954 4195 50  0000 C CNN
F 2 "" H 4950 4350 50  0001 C CNN
F 3 "" H 4950 4350 50  0001 C CNN
	1    4950 4350
	1    0    0    -1  
$EndComp
$Comp
L power:+3.3V #PWR0104
U 1 1 5CA540F7
P 4800 4100
F 0 "#PWR0104" H 4800 3950 50  0001 C CNN
F 1 "+3.3V" H 4815 4273 50  0000 C CNN
F 2 "" H 4800 4100 50  0001 C CNN
F 3 "" H 4800 4100 50  0001 C CNN
	1    4800 4100
	1    0    0    -1  
$EndComp
Wire Wire Line
	4600 4100 4800 4100
$Comp
L power:GNDD #PWR0105
U 1 1 5CA54762
P 5700 4300
F 0 "#PWR0105" H 5700 4050 50  0001 C CNN
F 1 "GNDD" H 5704 4145 50  0000 C CNN
F 2 "" H 5700 4300 50  0001 C CNN
F 3 "" H 5700 4300 50  0001 C CNN
	1    5700 4300
	1    0    0    -1  
$EndComp
Wire Wire Line
	5900 3850 5700 3850
Wire Wire Line
	5700 3850 5700 4300
Wire Wire Line
	5900 3550 5750 3550
Wire Wire Line
	5750 3550 5750 3250
$Comp
L power:+3.3V #PWR0106
U 1 1 5CA548FB
P 5750 3250
F 0 "#PWR0106" H 5750 3100 50  0001 C CNN
F 1 "+3.3V" H 5765 3423 50  0000 C CNN
F 2 "" H 5750 3250 50  0001 C CNN
F 3 "" H 5750 3250 50  0001 C CNN
	1    5750 3250
	1    0    0    -1  
$EndComp
$Comp
L Connector_Generic:Conn_01x02 J2
U 1 1 5CA54AF5
P 5300 3350
F 0 "J2" V 5266 3162 50  0000 R CNN
F 1 "Conn_01x02" V 5175 3162 50  0000 R CNN
F 2 "Connector_PinHeader_2.54mm:PinHeader_1x02_P2.54mm_Vertical" H 5300 3350 50  0001 C CNN
F 3 "~" H 5300 3350 50  0001 C CNN
	1    5300 3350
	0    -1   -1   0   
$EndComp
$Comp
L Connector_Generic:Conn_01x02 J3
U 1 1 5CA54BD8
P 5350 4100
F 0 "J3" V 5223 4180 50  0000 L CNN
F 1 "Conn_01x02" V 5314 4180 50  0000 L CNN
F 2 "Connector_PinHeader_2.54mm:PinHeader_1x02_P2.54mm_Vertical" H 5350 4100 50  0001 C CNN
F 3 "~" H 5350 4100 50  0001 C CNN
	1    5350 4100
	0    1    1    0   
$EndComp
Wire Wire Line
	4600 3900 5250 3900
Wire Wire Line
	5350 3650 5900 3650
Wire Wire Line
	5350 3650 5350 3900
Wire Wire Line
	5400 3550 5400 3750
Wire Wire Line
	5400 3750 5900 3750
Wire Wire Line
	5300 3550 5300 3800
Wire Wire Line
	5300 3800 4600 3800
$Comp
L power:GNDD #PWR0107
U 1 1 5CA554CD
P 2950 5650
F 0 "#PWR0107" H 2950 5400 50  0001 C CNN
F 1 "GNDD" H 2954 5495 50  0000 C CNN
F 2 "" H 2950 5650 50  0001 C CNN
F 3 "" H 2950 5650 50  0001 C CNN
	1    2950 5650
	1    0    0    -1  
$EndComp
Wire Wire Line
	3100 5500 2950 5500
Wire Wire Line
	2950 5500 2950 5650
Wire Wire Line
	3100 5400 2950 5400
Wire Wire Line
	2950 5400 2950 5500
Connection ~ 2950 5500
Wire Wire Line
	3100 4800 2900 4800
Wire Wire Line
	3100 4900 2900 4900
Wire Wire Line
	2900 4900 2900 4800
Connection ~ 2900 4800
Wire Wire Line
	2900 4100 3000 4100
Wire Wire Line
	2900 4100 2900 4800
Wire Wire Line
	7450 3600 8000 3600
Wire Wire Line
	7450 3700 8000 3700
$Comp
L power:GNDD #PWR0108
U 1 1 5CA57277
P 7550 4200
F 0 "#PWR0108" H 7550 3950 50  0001 C CNN
F 1 "GNDD" H 7554 4045 50  0000 C CNN
F 2 "" H 7550 4200 50  0001 C CNN
F 3 "" H 7550 4200 50  0001 C CNN
	1    7550 4200
	1    0    0    -1  
$EndComp
Wire Wire Line
	7450 3800 7550 3800
Wire Wire Line
	7550 3800 7550 4200
Text Label 8000 3700 2    50   ~ 0
RS485_B
Text Label 8000 3600 2    50   ~ 0
RS485_A
Wire Wire Line
	2550 5000 3100 5000
Text Label 2550 5000 0    50   ~ 0
RS485_B
Wire Wire Line
	2550 5300 3100 5300
Text Label 2550 5300 0    50   ~ 0
RS485_A
Wire Wire Line
	2550 5200 3100 5200
Text Label 2550 5200 0    50   ~ 0
RS485_A
Wire Wire Line
	2550 5100 3100 5100
Text Label 2550 5100 0    50   ~ 0
RS485_B
$Comp
L power:+3.3V #PWR0110
U 1 1 5CA611FD
P 5550 1000
F 0 "#PWR0110" H 5550 850 50  0001 C CNN
F 1 "+3.3V" H 5565 1173 50  0000 C CNN
F 2 "" H 5550 1000 50  0001 C CNN
F 3 "" H 5550 1000 50  0001 C CNN
	1    5550 1000
	1    0    0    -1  
$EndComp
$Comp
L power:GNDD #PWR0111
U 1 1 5CA61A07
P 5550 2700
F 0 "#PWR0111" H 5550 2450 50  0001 C CNN
F 1 "GNDD" H 5554 2545 50  0000 C CNN
F 2 "" H 5550 2700 50  0001 C CNN
F 3 "" H 5550 2700 50  0001 C CNN
	1    5550 2700
	1    0    0    -1  
$EndComp
$Comp
L SparkFun-IC-Memory:SF-MicroSD U3
U 1 1 5CA62508
P 6650 2100
F 0 "U3" H 6977 2211 60  0000 L CNN
F 1 "SF-MicroSD" H 6977 2105 60  0000 L CNN
F 2 "SparkFun-Footprints:SF-MICRO-SD" H 6977 1999 60  0000 L CNN
F 3 "" H 6650 1950 60  0000 C CNN
	1    6650 2100
	1    0    0    -1  
$EndComp
Wire Wire Line
	6150 2050 5550 2050
Wire Wire Line
	5550 2050 5550 1100
Wire Wire Line
	6150 2250 5550 2250
Wire Wire Line
	5550 2250 5550 2700
Wire Wire Line
	6150 2350 5200 2350
Wire Wire Line
	5200 2350 5200 3600
Wire Wire Line
	5200 3600 4600 3600
Wire Wire Line
	4600 3500 5150 3500
Wire Wire Line
	5150 3500 5150 1950
Wire Wire Line
	5150 1950 6150 1950
Wire Wire Line
	6150 2150 5100 2150
Wire Wire Line
	5100 2150 5100 3400
Wire Wire Line
	5100 3400 4600 3400
Wire Wire Line
	4600 2900 5300 2900
Wire Wire Line
	5300 2900 5300 1850
Wire Wire Line
	5300 1850 6150 1850
$Comp
L Device:C C1
U 1 1 5CA6A3DC
P 5250 1350
F 0 "C1" H 5365 1396 50  0000 L CNN
F 1 "2.2uF" H 5365 1305 50  0000 L CNN
F 2 "Capacitor_SMD:C_0805_2012Metric_Pad1.15x1.40mm_HandSolder" H 5288 1200 50  0001 C CNN
F 3 "~" H 5250 1350 50  0001 C CNN
	1    5250 1350
	1    0    0    -1  
$EndComp
Wire Wire Line
	5250 1200 5250 1100
Wire Wire Line
	5250 1100 5550 1100
Connection ~ 5550 1100
Wire Wire Line
	5550 1100 5550 1000
$Comp
L power:GNDD #PWR0109
U 1 1 5CA6CFAC
P 5250 1600
F 0 "#PWR0109" H 5250 1350 50  0001 C CNN
F 1 "GNDD" H 5254 1445 50  0000 C CNN
F 2 "" H 5250 1600 50  0001 C CNN
F 3 "" H 5250 1600 50  0001 C CNN
	1    5250 1600
	1    0    0    -1  
$EndComp
Wire Wire Line
	5250 1600 5250 1500
$Comp
L Device:LED D2
U 1 1 5CA7206A
P 2250 1950
F 0 "D2" V 2288 1832 50  0000 R CNN
F 1 "LED_COM" V 2197 1832 50  0000 R CNN
F 2 "LED_THT:LED_D3.0mm" H 2250 1950 50  0001 C CNN
F 3 "~" H 2250 1950 50  0001 C CNN
	1    2250 1950
	0    -1   -1   0   
$EndComp
$Comp
L Device:LED D3
U 1 1 5CA740BD
P 2750 1950
F 0 "D3" V 2788 1832 50  0000 R CNN
F 1 "LED_PWR" V 2697 1832 50  0000 R CNN
F 2 "LED_THT:LED_D3.0mm" H 2750 1950 50  0001 C CNN
F 3 "~" H 2750 1950 50  0001 C CNN
	1    2750 1950
	0    -1   -1   0   
$EndComp
$Comp
L Device:LED D1
U 1 1 5CA75019
P 1750 1950
F 0 "D1" V 1788 1832 50  0000 R CNN
F 1 "LED_WIFI" V 1697 1832 50  0000 R CNN
F 2 "LED_THT:LED_D3.0mm" H 1750 1950 50  0001 C CNN
F 3 "~" H 1750 1950 50  0001 C CNN
	1    1750 1950
	0    -1   -1   0   
$EndComp
Wire Wire Line
	4600 2700 5000 2700
Wire Wire Line
	4600 2800 5000 2800
Text Label 5000 2700 2    50   ~ 0
LED_WIFI
Text Label 5000 2800 2    50   ~ 0
LED_COM
Text Label 3750 1050 2    50   ~ 0
LED_WIFI
Text Label 3750 1150 2    50   ~ 0
LED_COM
Wire Wire Line
	2250 1150 3750 1150
Wire Wire Line
	1750 1050 3750 1050
$Comp
L power:+3.3V #PWR0112
U 1 1 5CA8167E
P 2750 900
F 0 "#PWR0112" H 2750 750 50  0001 C CNN
F 1 "+3.3V" H 2765 1073 50  0000 C CNN
F 2 "" H 2750 900 50  0001 C CNN
F 3 "" H 2750 900 50  0001 C CNN
	1    2750 900 
	1    0    0    -1  
$EndComp
$Comp
L power:GNDD #PWR0113
U 1 1 5CA82A40
P 2750 2350
F 0 "#PWR0113" H 2750 2100 50  0001 C CNN
F 1 "GNDD" H 2754 2195 50  0000 C CNN
F 2 "" H 2750 2350 50  0001 C CNN
F 3 "" H 2750 2350 50  0001 C CNN
	1    2750 2350
	1    0    0    -1  
$EndComp
Wire Wire Line
	2750 2100 2750 2250
Wire Wire Line
	2250 2100 2250 2250
Wire Wire Line
	2250 2250 2750 2250
Connection ~ 2750 2250
Wire Wire Line
	2750 2250 2750 2350
Wire Wire Line
	1750 2100 1750 2250
Wire Wire Line
	1750 2250 2250 2250
Connection ~ 2250 2250
$Comp
L Device:R R1
U 1 1 5CA89B56
P 1750 1500
F 0 "R1" H 1820 1546 50  0000 L CNN
F 1 "4.7K" H 1820 1455 50  0000 L CNN
F 2 "Resistor_SMD:R_0805_2012Metric_Pad1.15x1.40mm_HandSolder" V 1680 1500 50  0001 C CNN
F 3 "~" H 1750 1500 50  0001 C CNN
	1    1750 1500
	1    0    0    -1  
$EndComp
$Comp
L Device:R R2
U 1 1 5CA90B1E
P 2250 1500
F 0 "R2" H 2320 1546 50  0000 L CNN
F 1 "4.7K" H 2320 1455 50  0000 L CNN
F 2 "Resistor_SMD:R_0805_2012Metric_Pad1.15x1.40mm_HandSolder" V 2180 1500 50  0001 C CNN
F 3 "~" H 2250 1500 50  0001 C CNN
	1    2250 1500
	1    0    0    -1  
$EndComp
$Comp
L Device:R R3
U 1 1 5CA92159
P 2750 1500
F 0 "R3" H 2820 1546 50  0000 L CNN
F 1 "4.7K" H 2820 1455 50  0000 L CNN
F 2 "Resistor_SMD:R_0805_2012Metric_Pad1.15x1.40mm_HandSolder" V 2680 1500 50  0001 C CNN
F 3 "~" H 2750 1500 50  0001 C CNN
	1    2750 1500
	1    0    0    -1  
$EndComp
Wire Wire Line
	2750 1650 2750 1800
Wire Wire Line
	2250 1650 2250 1800
Wire Wire Line
	1750 1650 1750 1800
Wire Wire Line
	1750 1050 1750 1350
Wire Wire Line
	2250 1150 2250 1350
Wire Wire Line
	2750 900  2750 1350
Wire Wire Line
	4950 3300 4950 4350
$EndSCHEMATC
